{
    "mySqlProperties": {
        "host": "",
        "userName": "",
        "password": "",
        "database": ""
    },
    "logProperties": {
        "filePath": "E:\\logFiles\\oakumAssignment\\",
        "maxsize": 5000,
        "level": "info"
    },
    "nasaApi": {
        "endPoint": "https://api.nasa.gov/planetary/apod?api_key=",
        "key": "v6CtfIW31TskZL9GSploGcPC03f3zCoWClfT7Jr6"
    }
}